<?xml version="1.0" encoding="utf-8"?>
<!DOCTYPE eagle SYSTEM "eagle.dtd">
<eagle version="9.5.1">
<drawing>
<settings>
<setting alwaysvectorfont="no"/>
<setting verticaltext="up"/>
</settings>
<grid distance="50" unitdist="mil" unit="mil" style="lines" multiple="1" display="no" altdistance="5" altunitdist="mil" altunit="mil"/>
<layers>
<layer number="1" name="Top" color="4" fill="1" visible="yes" active="yes"/>
<layer number="16" name="Bottom" color="1" fill="1" visible="yes" active="yes"/>
<layer number="17" name="Pads" color="2" fill="1" visible="yes" active="yes"/>
<layer number="18" name="Vias" color="2" fill="1" visible="yes" active="yes"/>
<layer number="19" name="Unrouted" color="6" fill="1" visible="yes" active="yes"/>
<layer number="20" name="Dimension" color="24" fill="1" visible="yes" active="yes"/>
<layer number="21" name="tPlace" color="7" fill="1" visible="yes" active="yes"/>
<layer number="22" name="bPlace" color="7" fill="1" visible="yes" active="yes"/>
<layer number="23" name="tOrigins" color="15" fill="1" visible="yes" active="yes"/>
<layer number="24" name="bOrigins" color="15" fill="1" visible="yes" active="yes"/>
<layer number="25" name="tNames" color="7" fill="1" visible="yes" active="yes"/>
<layer number="26" name="bNames" color="7" fill="1" visible="yes" active="yes"/>
<layer number="27" name="tValues" color="7" fill="1" visible="yes" active="yes"/>
<layer number="28" name="bValues" color="7" fill="1" visible="yes" active="yes"/>
<layer number="29" name="tStop" color="7" fill="3" visible="no" active="yes"/>
<layer number="30" name="bStop" color="7" fill="6" visible="no" active="yes"/>
<layer number="31" name="tCream" color="7" fill="4" visible="no" active="yes"/>
<layer number="32" name="bCream" color="7" fill="5" visible="no" active="yes"/>
<layer number="33" name="tFinish" color="6" fill="3" visible="no" active="yes"/>
<layer number="34" name="bFinish" color="6" fill="6" visible="no" active="yes"/>
<layer number="35" name="tGlue" color="7" fill="4" visible="no" active="yes"/>
<layer number="36" name="bGlue" color="7" fill="5" visible="no" active="yes"/>
<layer number="37" name="tTest" color="7" fill="1" visible="no" active="yes"/>
<layer number="38" name="bTest" color="7" fill="1" visible="no" active="yes"/>
<layer number="39" name="tKeepout" color="4" fill="11" visible="yes" active="yes"/>
<layer number="40" name="bKeepout" color="1" fill="11" visible="yes" active="yes"/>
<layer number="41" name="tRestrict" color="4" fill="10" visible="yes" active="yes"/>
<layer number="42" name="bRestrict" color="1" fill="10" visible="yes" active="yes"/>
<layer number="43" name="vRestrict" color="2" fill="10" visible="yes" active="yes"/>
<layer number="44" name="Drills" color="7" fill="1" visible="no" active="yes"/>
<layer number="45" name="Holes" color="7" fill="1" visible="yes" active="yes"/>
<layer number="46" name="Milling" color="3" fill="1" visible="no" active="yes"/>
<layer number="47" name="Measures" color="7" fill="1" visible="no" active="yes"/>
<layer number="48" name="Document" color="7" fill="1" visible="yes" active="yes"/>
<layer number="49" name="Reference" color="7" fill="1" visible="yes" active="yes"/>
<layer number="50" name="dxf" color="7" fill="1" visible="no" active="no"/>
<layer number="51" name="tDocu" color="7" fill="1" visible="yes" active="yes"/>
<layer number="52" name="bDocu" color="7" fill="1" visible="yes" active="yes"/>
<layer number="53" name="tGND_GNDA" color="7" fill="9" visible="no" active="no"/>
<layer number="54" name="bGND_GNDA" color="1" fill="9" visible="no" active="no"/>
<layer number="56" name="wert" color="7" fill="1" visible="no" active="no"/>
<layer number="57" name="tCAD" color="7" fill="1" visible="no" active="no"/>
<layer number="59" name="tCarbon" color="7" fill="1" visible="no" active="no"/>
<layer number="60" name="bCarbon" color="7" fill="1" visible="no" active="no"/>
<layer number="88" name="SimResults" color="9" fill="1" visible="no" active="no"/>
<layer number="89" name="SimProbes" color="9" fill="1" visible="no" active="no"/>
<layer number="90" name="Modules" color="5" fill="1" visible="no" active="no"/>
<layer number="91" name="Nets" color="2" fill="1" visible="no" active="no"/>
<layer number="92" name="Busses" color="1" fill="1" visible="no" active="no"/>
<layer number="93" name="Pins" color="2" fill="1" visible="no" active="no"/>
<layer number="94" name="Symbols" color="4" fill="1" visible="no" active="no"/>
<layer number="95" name="Names" color="7" fill="1" visible="no" active="no"/>
<layer number="96" name="Values" color="7" fill="1" visible="no" active="no"/>
<layer number="97" name="Info" color="7" fill="1" visible="no" active="no"/>
<layer number="98" name="Guide" color="6" fill="1" visible="no" active="no"/>
<layer number="99" name="SpiceOrder" color="7" fill="1" visible="no" active="no"/>
<layer number="100" name="Muster" color="7" fill="1" visible="no" active="no"/>
<layer number="101" name="Patch_Top" color="12" fill="4" visible="yes" active="yes"/>
<layer number="102" name="Vscore" color="7" fill="1" visible="yes" active="yes"/>
<layer number="103" name="tMap" color="7" fill="1" visible="yes" active="yes"/>
<layer number="104" name="Name" color="16" fill="1" visible="yes" active="yes"/>
<layer number="105" name="tPlate" color="7" fill="1" visible="yes" active="yes"/>
<layer number="106" name="bPlate" color="7" fill="1" visible="yes" active="yes"/>
<layer number="107" name="Crop" color="7" fill="1" visible="yes" active="yes"/>
<layer number="108" name="tplace-old" color="10" fill="1" visible="yes" active="yes"/>
<layer number="109" name="ref-old" color="11" fill="1" visible="yes" active="yes"/>
<layer number="110" name="fp0" color="7" fill="1" visible="yes" active="yes"/>
<layer number="111" name="LPC17xx" color="7" fill="1" visible="yes" active="yes"/>
<layer number="112" name="tSilk" color="7" fill="1" visible="yes" active="yes"/>
<layer number="113" name="IDFDebug" color="4" fill="1" visible="yes" active="yes"/>
<layer number="114" name="Badge_Outline" color="7" fill="1" visible="yes" active="yes"/>
<layer number="115" name="ReferenceISLANDS" color="7" fill="1" visible="yes" active="yes"/>
<layer number="116" name="Patch_BOT" color="9" fill="4" visible="yes" active="yes"/>
<layer number="117" name="BACKMAAT1" color="7" fill="1" visible="no" active="no"/>
<layer number="118" name="Rect_Pads" color="7" fill="1" visible="yes" active="yes"/>
<layer number="119" name="KAP_TEKEN" color="7" fill="1" visible="no" active="no"/>
<layer number="120" name="KAP_MAAT1" color="7" fill="1" visible="no" active="no"/>
<layer number="121" name="_tsilk" color="7" fill="1" visible="yes" active="yes"/>
<layer number="122" name="_bsilk" color="7" fill="1" visible="yes" active="yes"/>
<layer number="123" name="tTestmark" color="7" fill="1" visible="yes" active="yes"/>
<layer number="124" name="bTestmark" color="7" fill="1" visible="yes" active="yes"/>
<layer number="125" name="_tNames" color="7" fill="1" visible="yes" active="yes"/>
<layer number="126" name="_bNames" color="7" fill="1" visible="yes" active="yes"/>
<layer number="127" name="_tValues" color="7" fill="1" visible="yes" active="yes"/>
<layer number="128" name="_bValues" color="7" fill="1" visible="yes" active="yes"/>
<layer number="129" name="Mask" color="7" fill="1" visible="yes" active="yes"/>
<layer number="130" name="SMDSTROOK" color="7" fill="1" visible="no" active="no"/>
<layer number="131" name="tAdjust" color="7" fill="1" visible="yes" active="yes"/>
<layer number="132" name="bAdjust" color="7" fill="1" visible="yes" active="yes"/>
<layer number="133" name="bottom_silk" color="7" fill="1" visible="yes" active="yes"/>
<layer number="134" name="silk_top" color="7" fill="1" visible="no" active="no"/>
<layer number="135" name="silk_bottom" color="7" fill="1" visible="no" active="no"/>
<layer number="136" name="silktop" color="7" fill="1" visible="yes" active="yes"/>
<layer number="137" name="silkbottom" color="7" fill="1" visible="yes" active="yes"/>
<layer number="138" name="mbTest" color="7" fill="1" visible="yes" active="yes"/>
<layer number="139" name="mtKeepout" color="7" fill="1" visible="yes" active="yes"/>
<layer number="140" name="mbKeepout" color="7" fill="1" visible="yes" active="yes"/>
<layer number="141" name="mtRestrict" color="7" fill="1" visible="yes" active="yes"/>
<layer number="142" name="mbRestrict" color="7" fill="1" visible="yes" active="yes"/>
<layer number="143" name="mvRestrict" color="7" fill="1" visible="yes" active="yes"/>
<layer number="144" name="Drill_legend" color="7" fill="1" visible="yes" active="yes"/>
<layer number="145" name="DrillLegend_01-16" color="7" fill="1" visible="yes" active="yes"/>
<layer number="146" name="DrillLegend_01-20" color="7" fill="1" visible="yes" active="yes"/>
<layer number="147" name="mMeasures" color="7" fill="1" visible="yes" active="yes"/>
<layer number="148" name="mDocument" color="7" fill="1" visible="yes" active="yes"/>
<layer number="149" name="mReference" color="7" fill="1" visible="yes" active="yes"/>
<layer number="150" name="Notes" color="7" fill="1" visible="yes" active="yes"/>
<layer number="151" name="HeatSink" color="7" fill="1" visible="yes" active="yes"/>
<layer number="152" name="_bDocu" color="7" fill="1" visible="yes" active="yes"/>
<layer number="153" name="FabDoc1" color="7" fill="1" visible="yes" active="yes"/>
<layer number="154" name="FabDoc2" color="7" fill="1" visible="yes" active="yes"/>
<layer number="155" name="FabDoc3" color="7" fill="1" visible="yes" active="yes"/>
<layer number="166" name="AntennaArea" color="7" fill="1" visible="yes" active="yes"/>
<layer number="168" name="4mmHeightArea" color="7" fill="1" visible="yes" active="yes"/>
<layer number="191" name="mNets" color="7" fill="1" visible="yes" active="yes"/>
<layer number="192" name="mBusses" color="7" fill="1" visible="yes" active="yes"/>
<layer number="193" name="mPins" color="7" fill="1" visible="yes" active="yes"/>
<layer number="194" name="mSymbols" color="7" fill="1" visible="yes" active="yes"/>
<layer number="195" name="mNames" color="7" fill="1" visible="yes" active="yes"/>
<layer number="196" name="mValues" color="7" fill="1" visible="yes" active="yes"/>
<layer number="199" name="Contour" color="7" fill="1" visible="yes" active="yes"/>
<layer number="200" name="200bmp" color="1" fill="10" visible="yes" active="yes"/>
<layer number="201" name="201bmp" color="2" fill="10" visible="yes" active="yes"/>
<layer number="202" name="202bmp" color="3" fill="10" visible="yes" active="yes"/>
<layer number="203" name="203bmp" color="4" fill="10" visible="yes" active="yes"/>
<layer number="204" name="204bmp" color="5" fill="10" visible="yes" active="yes"/>
<layer number="205" name="205bmp" color="6" fill="10" visible="yes" active="yes"/>
<layer number="206" name="206bmp" color="7" fill="10" visible="yes" active="yes"/>
<layer number="207" name="207bmp" color="8" fill="10" visible="yes" active="yes"/>
<layer number="208" name="208bmp" color="9" fill="10" visible="yes" active="yes"/>
<layer number="209" name="209bmp" color="7" fill="1" visible="yes" active="yes"/>
<layer number="210" name="210bmp" color="7" fill="1" visible="yes" active="yes"/>
<layer number="211" name="211bmp" color="7" fill="1" visible="yes" active="yes"/>
<layer number="212" name="212bmp" color="7" fill="1" visible="yes" active="yes"/>
<layer number="213" name="213bmp" color="7" fill="1" visible="yes" active="yes"/>
<layer number="214" name="214bmp" color="7" fill="1" visible="yes" active="yes"/>
<layer number="215" name="215bmp" color="7" fill="1" visible="yes" active="yes"/>
<layer number="216" name="216bmp" color="7" fill="1" visible="yes" active="yes"/>
<layer number="217" name="217bmp" color="18" fill="1" visible="no" active="no"/>
<layer number="218" name="218bmp" color="19" fill="1" visible="no" active="no"/>
<layer number="219" name="219bmp" color="20" fill="1" visible="no" active="no"/>
<layer number="220" name="220bmp" color="21" fill="1" visible="no" active="no"/>
<layer number="221" name="221bmp" color="22" fill="1" visible="no" active="no"/>
<layer number="222" name="222bmp" color="23" fill="1" visible="no" active="no"/>
<layer number="223" name="223bmp" color="24" fill="1" visible="no" active="no"/>
<layer number="224" name="224bmp" color="25" fill="1" visible="no" active="no"/>
<layer number="225" name="225bmp" color="7" fill="1" visible="yes" active="yes"/>
<layer number="226" name="226bmp" color="7" fill="1" visible="yes" active="yes"/>
<layer number="227" name="227bmp" color="7" fill="1" visible="yes" active="yes"/>
<layer number="228" name="228bmp" color="7" fill="1" visible="yes" active="yes"/>
<layer number="229" name="229bmp" color="7" fill="1" visible="yes" active="yes"/>
<layer number="230" name="230bmp" color="7" fill="1" visible="yes" active="yes"/>
<layer number="231" name="231bmp" color="7" fill="1" visible="yes" active="yes"/>
<layer number="232" name="Eagle3D_PG2" color="7" fill="1" visible="yes" active="yes"/>
<layer number="233" name="Eagle3D_PG3" color="7" fill="1" visible="yes" active="yes"/>
<layer number="248" name="Housing" color="7" fill="1" visible="yes" active="yes"/>
<layer number="249" name="Edge" color="7" fill="1" visible="yes" active="yes"/>
<layer number="250" name="Descript" color="3" fill="1" visible="no" active="no"/>
<layer number="251" name="SMDround" color="12" fill="11" visible="no" active="no"/>
<layer number="254" name="cooling" color="7" fill="1" visible="yes" active="yes"/>
<layer number="255" name="routoute" color="7" fill="1" visible="yes" active="yes"/>
</layers>
<board>
<plain>
<wire x1="0" y1="0" x2="59.36" y2="0" width="0" layer="20"/>
<wire x1="59.36" y1="0" x2="59.36" y2="53.33" width="0" layer="20"/>
<wire x1="59.36" y1="53.33" x2="0" y2="53.33" width="0" layer="20"/>
<wire x1="0" y1="53.33" x2="0" y2="0" width="0" layer="20"/>
<text x="17.78" y="25.4" size="1.4224" layer="21" font="vector" rot="SR90" align="center">SN74HC164N</text>
<text x="12.7" y="43.18" size="1.4224" layer="22" font="vector" rot="MR90" align="center">Noritake
itron
GU20X8-301</text>
<text x="1.27" y="2.54" size="1.4224" layer="21" font="vector" rot="R90" align="top-left">https://bitbucket.org/zkarcher/gu20x8_clock</text>
<text x="45.72" y="26.67" size="1.4224" layer="22" font="vector" rot="MR270" align="center">https://bitbucket.org/zkarcher/gu20x8_clock</text>
<hole x="3.81" y="49.53" drill="3.175"/>
<hole x="55.88" y="49.53" drill="3.175"/>
<text x="7.62" y="49.53" size="1.4224" layer="21" font="vector" align="center-left">2019-10-06</text>
</plain>
<libraries>
<library name="SN74HC164N">
<packages>
<package name="DIP254P762X508-14">
<wire x1="-0.508" y1="16.4592" x2="-0.508" y2="17.4752" width="0.1524" layer="21"/>
<wire x1="-7.112" y1="-1.2192" x2="-7.112" y2="-2.2352" width="0.1524" layer="21"/>
<wire x1="-7.112" y1="-2.2352" x2="-0.508" y2="-2.2352" width="0.1524" layer="21"/>
<wire x1="-0.508" y1="-2.2352" x2="-0.508" y2="-1.2192" width="0.1524" layer="21"/>
<wire x1="-0.508" y1="17.4752" x2="-3.5052" y2="17.4752" width="0.1524" layer="21"/>
<wire x1="-3.5052" y1="17.4752" x2="-4.1148" y2="17.4752" width="0.1524" layer="21"/>
<wire x1="-4.1148" y1="17.4752" x2="-7.112" y2="17.4752" width="0.1524" layer="21"/>
<wire x1="-7.112" y1="17.4752" x2="-7.112" y2="16.5608" width="0.1524" layer="21"/>
<wire x1="-3.5052" y1="17.4752" x2="-4.1148" y2="17.4752" width="0" layer="21" curve="-180"/>
<wire x1="-7.112" y1="14.6812" x2="-7.112" y2="15.7988" width="0.1524" layer="51"/>
<wire x1="-7.112" y1="15.7988" x2="-8.1788" y2="15.7988" width="0.1524" layer="51"/>
<wire x1="-8.1788" y1="15.7988" x2="-8.1788" y2="14.6812" width="0.1524" layer="51"/>
<wire x1="-8.1788" y1="14.6812" x2="-7.112" y2="14.6812" width="0.1524" layer="51"/>
<wire x1="-7.112" y1="12.1412" x2="-7.112" y2="13.2588" width="0.1524" layer="51"/>
<wire x1="-7.112" y1="13.2588" x2="-8.1788" y2="13.2588" width="0.1524" layer="51"/>
<wire x1="-8.1788" y1="13.2588" x2="-8.1788" y2="12.1412" width="0.1524" layer="51"/>
<wire x1="-8.1788" y1="12.1412" x2="-7.112" y2="12.1412" width="0.1524" layer="51"/>
<wire x1="-7.112" y1="9.6012" x2="-7.112" y2="10.7188" width="0.1524" layer="51"/>
<wire x1="-7.112" y1="10.7188" x2="-8.1788" y2="10.7188" width="0.1524" layer="51"/>
<wire x1="-8.1788" y1="10.7188" x2="-8.1788" y2="9.6012" width="0.1524" layer="51"/>
<wire x1="-8.1788" y1="9.6012" x2="-7.112" y2="9.6012" width="0.1524" layer="51"/>
<wire x1="-7.112" y1="7.0612" x2="-7.112" y2="8.1788" width="0.1524" layer="51"/>
<wire x1="-7.112" y1="8.1788" x2="-8.1788" y2="8.1788" width="0.1524" layer="51"/>
<wire x1="-8.1788" y1="8.1788" x2="-8.1788" y2="7.0612" width="0.1524" layer="51"/>
<wire x1="-8.1788" y1="7.0612" x2="-7.112" y2="7.0612" width="0.1524" layer="51"/>
<wire x1="-7.112" y1="4.5212" x2="-7.112" y2="5.6388" width="0.1524" layer="51"/>
<wire x1="-7.112" y1="5.6388" x2="-8.1788" y2="5.6388" width="0.1524" layer="51"/>
<wire x1="-8.1788" y1="5.6388" x2="-8.1788" y2="4.5212" width="0.1524" layer="51"/>
<wire x1="-8.1788" y1="4.5212" x2="-7.112" y2="4.5212" width="0.1524" layer="51"/>
<wire x1="-7.112" y1="1.9812" x2="-7.112" y2="3.0988" width="0.1524" layer="51"/>
<wire x1="-7.112" y1="3.0988" x2="-8.1788" y2="3.0988" width="0.1524" layer="51"/>
<wire x1="-8.1788" y1="3.0988" x2="-8.1788" y2="1.9812" width="0.1524" layer="51"/>
<wire x1="-8.1788" y1="1.9812" x2="-7.112" y2="1.9812" width="0.1524" layer="51"/>
<wire x1="-7.112" y1="-0.5588" x2="-7.112" y2="0.5588" width="0.1524" layer="51"/>
<wire x1="-7.112" y1="0.5588" x2="-8.1788" y2="0.5588" width="0.1524" layer="51"/>
<wire x1="-8.1788" y1="0.5588" x2="-8.1788" y2="-0.5588" width="0.1524" layer="51"/>
<wire x1="-8.1788" y1="-0.5588" x2="-7.112" y2="-0.5588" width="0.1524" layer="51"/>
<wire x1="-0.508" y1="0.5588" x2="-0.508" y2="-0.5588" width="0.1524" layer="51"/>
<wire x1="-0.508" y1="-0.5588" x2="0.5588" y2="-0.5588" width="0.1524" layer="51"/>
<wire x1="0.5588" y1="-0.5588" x2="0.5588" y2="0.5588" width="0.1524" layer="51"/>
<wire x1="0.5588" y1="0.5588" x2="-0.508" y2="0.5588" width="0.1524" layer="51"/>
<wire x1="-0.508" y1="3.0988" x2="-0.508" y2="1.9812" width="0.1524" layer="51"/>
<wire x1="-0.508" y1="1.9812" x2="0.5588" y2="1.9812" width="0.1524" layer="51"/>
<wire x1="0.5588" y1="1.9812" x2="0.5588" y2="3.0988" width="0.1524" layer="51"/>
<wire x1="0.5588" y1="3.0988" x2="-0.508" y2="3.0988" width="0.1524" layer="51"/>
<wire x1="-0.508" y1="5.6388" x2="-0.508" y2="4.5212" width="0.1524" layer="51"/>
<wire x1="-0.508" y1="4.5212" x2="0.5588" y2="4.5212" width="0.1524" layer="51"/>
<wire x1="0.5588" y1="4.5212" x2="0.5588" y2="5.6388" width="0.1524" layer="51"/>
<wire x1="0.5588" y1="5.6388" x2="-0.508" y2="5.6388" width="0.1524" layer="51"/>
<wire x1="-0.508" y1="8.1788" x2="-0.508" y2="7.0612" width="0.1524" layer="51"/>
<wire x1="-0.508" y1="7.0612" x2="0.5588" y2="7.0612" width="0.1524" layer="51"/>
<wire x1="0.5588" y1="7.0612" x2="0.5588" y2="8.1788" width="0.1524" layer="51"/>
<wire x1="0.5588" y1="8.1788" x2="-0.508" y2="8.1788" width="0.1524" layer="51"/>
<wire x1="-0.508" y1="10.7188" x2="-0.508" y2="9.6012" width="0.1524" layer="51"/>
<wire x1="-0.508" y1="9.6012" x2="0.5588" y2="9.6012" width="0.1524" layer="51"/>
<wire x1="0.5588" y1="9.6012" x2="0.5588" y2="10.7188" width="0.1524" layer="51"/>
<wire x1="0.5588" y1="10.7188" x2="-0.508" y2="10.7188" width="0.1524" layer="51"/>
<wire x1="-0.508" y1="13.2588" x2="-0.508" y2="12.1412" width="0.1524" layer="51"/>
<wire x1="-0.508" y1="12.1412" x2="0.5588" y2="12.1412" width="0.1524" layer="51"/>
<wire x1="0.5588" y1="12.1412" x2="0.5588" y2="13.2588" width="0.1524" layer="51"/>
<wire x1="0.5588" y1="13.2588" x2="-0.508" y2="13.2588" width="0.1524" layer="51"/>
<wire x1="-0.508" y1="15.7988" x2="-0.508" y2="14.6812" width="0.1524" layer="51"/>
<wire x1="-0.508" y1="14.6812" x2="0.5588" y2="14.6812" width="0.1524" layer="51"/>
<wire x1="0.5588" y1="14.6812" x2="0.5588" y2="15.7988" width="0.1524" layer="51"/>
<wire x1="0.5588" y1="15.7988" x2="-0.508" y2="15.7988" width="0.1524" layer="51"/>
<wire x1="-7.112" y1="-2.2352" x2="-0.508" y2="-2.2352" width="0.1524" layer="51"/>
<wire x1="-0.508" y1="-2.2352" x2="-0.508" y2="17.4752" width="0.1524" layer="51"/>
<wire x1="-0.508" y1="17.4752" x2="-3.5052" y2="17.4752" width="0.1524" layer="51"/>
<wire x1="-3.5052" y1="17.4752" x2="-4.1148" y2="17.4752" width="0.1524" layer="51"/>
<wire x1="-4.1148" y1="17.4752" x2="-7.112" y2="17.4752" width="0.1524" layer="51"/>
<wire x1="-7.112" y1="17.4752" x2="-7.112" y2="-2.2352" width="0.1524" layer="51"/>
<wire x1="-3.5052" y1="17.4752" x2="-4.1148" y2="17.4752" width="0" layer="51" curve="-180"/>
<text x="-8.61963125" y="18.2817" size="2.08498125" layer="25" ratio="10" rot="SR0">&gt;NAME</text>
<text x="-9.64496875" y="-4.911559375" size="2.08678125" layer="27" ratio="10" rot="SR0">&gt;VALUE</text>
<pad name="1" x="-7.62" y="15.24" drill="1.1176" shape="square"/>
<pad name="2" x="-7.62" y="12.7" drill="1.1176"/>
<pad name="3" x="-7.62" y="10.16" drill="1.1176"/>
<pad name="4" x="-7.62" y="7.62" drill="1.1176"/>
<pad name="5" x="-7.62" y="5.08" drill="1.1176"/>
<pad name="6" x="-7.62" y="2.54" drill="1.1176"/>
<pad name="7" x="-7.62" y="0" drill="1.1176"/>
<pad name="8" x="0" y="0" drill="1.1176"/>
<pad name="9" x="0" y="2.54" drill="1.1176"/>
<pad name="10" x="0" y="5.08" drill="1.1176"/>
<pad name="11" x="0" y="7.62" drill="1.1176"/>
<pad name="12" x="0" y="10.16" drill="1.1176"/>
<pad name="13" x="0" y="12.7" drill="1.1176"/>
<pad name="14" x="0" y="15.24" drill="1.1176"/>
</package>
</packages>
</library>
<library name="LOLIN32">
<packages>
<package name="LOLIN32VAR1">
<wire x1="7.9" y1="31.726" x2="7.9" y2="25.926" width="0.127" layer="21"/>
<wire x1="-8.1" y1="25.926" x2="-8.1" y2="31.726" width="0.127" layer="21"/>
<wire x1="-8.1" y1="31.726" x2="7.9" y2="31.726" width="0.127" layer="21"/>
<wire x1="-8.1" y1="25.926" x2="7.9" y2="25.926" width="0.127" layer="21"/>
<pad name="GND@3" x="11.43" y="6.35" drill="1.016" diameter="1.8288" shape="long"/>
<pad name="GND@2" x="11.43" y="8.89" drill="1.016" diameter="1.8288" shape="long"/>
<pad name="GPIO21/SDA" x="11.43" y="11.43" drill="1.016" diameter="1.8288" shape="long"/>
<pad name="GPIO22/SCL" x="11.43" y="13.97" drill="1.016" diameter="1.8288" shape="long"/>
<pad name="3V3@2" x="11.43" y="16.51" drill="1.016" diameter="1.8288" shape="long"/>
<pad name="RX/0" x="11.43" y="19.05" drill="1.016" diameter="1.8288" shape="long"/>
<pad name="TX/1" x="11.43" y="21.59" drill="1.016" diameter="1.8288" shape="long"/>
<pad name="GND@1" x="11.43" y="24.13" drill="1.016" diameter="1.8288" shape="long"/>
<pad name="GPIO35/A7" x="-11.43" y="6.35" drill="1.016" diameter="1.8288" shape="long" rot="R180"/>
<pad name="GPIO34/A6" x="-11.43" y="8.89" drill="1.016" diameter="1.8288" shape="long" rot="R180"/>
<pad name="GPIO33/A5" x="-11.43" y="11.43" drill="1.016" diameter="1.8288" shape="long" rot="R180"/>
<pad name="GPIO32/A4" x="-11.43" y="13.97" drill="1.016" diameter="1.8288" shape="long" rot="R180"/>
<pad name="GPIO39/VN/A3" x="-11.43" y="16.51" drill="1.016" diameter="1.8288" shape="long" rot="R180"/>
<pad name="GPIO36/VP/V0" x="-11.43" y="19.05" drill="1.016" diameter="1.8288" shape="long" rot="R180"/>
<pad name="EN" x="-11.43" y="21.59" drill="1.016" diameter="1.8288" shape="long" rot="R180"/>
<pad name="3V3@1" x="-11.43" y="24.13" drill="1.016" diameter="1.8288" shape="long" rot="R180"/>
<text x="-3.81" y="10.16" size="1.4224" layer="21">WeMos.cc
LOLIN32</text>
<text x="0" y="-30.48" size="1.4224" layer="25" align="bottom-right">&gt;Name</text>
<wire x1="-8.1026" y1="25.9334" x2="-8.1026" y2="7.62" width="0.127" layer="21"/>
<wire x1="7.874" y1="25.9334" x2="7.8994" y2="25.9334" width="0.127" layer="21"/>
<wire x1="7.8994" y1="25.9334" x2="7.8994" y2="7.62" width="0.127" layer="21"/>
<wire x1="12.7" y1="29.21" x2="12.7" y2="-27.94" width="0.127" layer="21"/>
<wire x1="-10.16" y1="31.75" x2="10.16" y2="31.75" width="0.127" layer="21"/>
<wire x1="-12.7" y1="29.21" x2="-10.16" y2="31.75" width="0.127" layer="21" curve="-90"/>
<wire x1="10.16" y1="31.75" x2="12.7" y2="29.21" width="0.127" layer="21" curve="-90"/>
<wire x1="-12.7" y1="29.21" x2="-12.7" y2="-27.94" width="0.127" layer="21"/>
<wire x1="-12.7" y1="-27.94" x2="12.7" y2="-27.94" width="0.127" layer="21"/>
<wire x1="-8.1026" y1="7.62" x2="7.874" y2="7.62" width="0.127" layer="21"/>
<text x="-10.16" y="24.13" size="0.762" layer="25" align="center-left">3V3</text>
<text x="-10.16" y="21.59" size="0.762" layer="25" align="center-left">EN</text>
<text x="-10.16" y="19.05" size="0.762" layer="25" align="center-left">GPIO36/VP/V0</text>
<text x="-10.16" y="16.51" size="0.762" layer="25" align="center-left">GPIO39/VN/A3</text>
<text x="-10.16" y="13.97" size="0.762" layer="25" align="center-left">GPIO32/A4</text>
<text x="-10.16" y="11.43" size="0.762" layer="25" align="center-left">GPIO33/A5</text>
<text x="-10.16" y="8.89" size="0.762" layer="25" align="center-left">GPIO34/A6</text>
<text x="-10.16" y="6.35" size="0.762" layer="25" align="center-left">GPIO35/A7</text>
<text x="10.16" y="6.35" size="0.762" layer="25" rot="R180" align="center-left">GND</text>
<text x="10.16" y="8.89" size="0.762" layer="25" rot="R180" align="center-left">GND</text>
<text x="10.16" y="11.43" size="0.762" layer="25" rot="R180" align="center-left">GPIO21/SDA</text>
<text x="10.16" y="13.97" size="0.762" layer="25" rot="R180" align="center-left">GPIO22/SCL</text>
<text x="10.16" y="16.51" size="0.762" layer="25" rot="R180" align="center-left">3V3</text>
<text x="10.16" y="19.05" size="0.762" layer="25" rot="R180" align="center-left">RX/0</text>
<text x="10.16" y="21.59" size="0.762" layer="25" rot="R180" align="center-left">TX/1</text>
<text x="10.16" y="24.13" size="0.762" layer="25" rot="R180" align="center-left">GND</text>
<wire x1="-3.81" y1="-26.67" x2="3.81" y2="-26.67" width="0.2032" layer="21"/>
<wire x1="3.81" y1="-26.67" x2="3.81" y2="-22.86" width="0.2032" layer="21"/>
<wire x1="3.81" y1="-22.86" x2="-3.81" y2="-22.86" width="0.2032" layer="21"/>
<wire x1="-3.81" y1="-22.86" x2="-3.81" y2="-26.67" width="0.2032" layer="21"/>
<text x="0" y="29.21" size="1.4224" layer="25" align="center">ANTENNA
KEEP CLEAR</text>
<text x="0" y="-24.13" size="1.016" layer="25" align="center">USB
MICRO</text>
<wire x1="-7.62" y1="-22.86" x2="-11.43" y2="-22.86" width="0.2032" layer="21"/>
<wire x1="-11.43" y1="-22.86" x2="-11.43" y2="-26.67" width="0.2032" layer="21"/>
<wire x1="-11.43" y1="-26.67" x2="-7.62" y2="-26.67" width="0.2032" layer="21"/>
<wire x1="-7.62" y1="-26.67" x2="-7.62" y2="-22.86" width="0.2032" layer="21"/>
<text x="-9.525" y="-24.13" size="0.635" layer="25" align="center">RESET
SWITCH</text>
<pad name="GPIO4" x="11.43" y="-13.97" drill="1.016" diameter="1.8288" shape="long"/>
<pad name="GPIO16" x="11.43" y="-11.43" drill="1.016" diameter="1.8288" shape="long"/>
<pad name="GPIO17" x="11.43" y="-8.89" drill="1.016" diameter="1.8288" shape="long"/>
<pad name="3V3@3" x="11.43" y="-6.35" drill="1.016" diameter="1.8288" shape="long"/>
<pad name="GPIO5/LED/SS" x="11.43" y="-3.81" drill="1.016" diameter="1.8288" shape="long"/>
<pad name="GPIO18/SCK" x="11.43" y="-1.27" drill="1.016" diameter="1.8288" shape="long"/>
<pad name="GPIO23/MOSI" x="11.43" y="1.27" drill="1.016" diameter="1.8288" shape="long"/>
<pad name="GPIO19/MISO" x="11.43" y="3.81" drill="1.016" diameter="1.8288" shape="long"/>
<text x="10.16" y="-13.97" size="0.762" layer="25" rot="R180" align="center-left">GPIO4</text>
<text x="10.16" y="-11.43" size="0.762" layer="25" rot="R180" align="center-left">GPIO16</text>
<text x="10.16" y="-8.89" size="0.762" layer="25" rot="R180" align="center-left">GPIO17</text>
<text x="10.16" y="-6.35" size="0.762" layer="25" rot="R180" align="center-left">3V3</text>
<text x="10.16" y="-3.81" size="0.762" layer="25" rot="R180" align="center-left">GPIO5/LED/SS</text>
<text x="10.16" y="-1.27" size="0.762" layer="25" rot="R180" align="center-left">GPIO18/SCK</text>
<text x="10.16" y="1.27" size="0.762" layer="25" rot="R180" align="center-left">GPIO23/MOSI</text>
<text x="10.16" y="3.81" size="0.762" layer="25" rot="R180" align="center-left">GPIO19/MISO</text>
<pad name="GPIO15" x="11.43" y="-24.13" drill="1.016" diameter="1.8288" shape="long"/>
<pad name="GPIO2" x="11.43" y="-21.59" drill="1.016" diameter="1.8288" shape="long"/>
<pad name="GND@4" x="11.43" y="-19.05" drill="1.016" diameter="1.8288" shape="long"/>
<pad name="GPIO0" x="11.43" y="-16.51" drill="1.016" diameter="1.8288" shape="long"/>
<text x="8.89" y="-24.13" size="0.762" layer="25" rot="R180" align="center-left">GPIO15</text>
<text x="8.89" y="-21.59" size="0.762" layer="25" rot="R180" align="center-left">GPIO2</text>
<text x="8.89" y="-19.05" size="0.762" layer="25" rot="R180" align="center-left">GND</text>
<text x="8.89" y="-16.51" size="0.762" layer="25" rot="R180" align="center-left">GPIO0</text>
<pad name="GND@5" x="-11.43" y="-13.97" drill="1.016" diameter="1.8288" shape="long" rot="R180"/>
<pad name="5V" x="-11.43" y="-11.43" drill="1.016" diameter="1.8288" shape="long" rot="R180"/>
<pad name="GPIO13/A14" x="-11.43" y="-8.89" drill="1.016" diameter="1.8288" shape="long" rot="R180"/>
<pad name="GPIO12/A15" x="-11.43" y="-6.35" drill="1.016" diameter="1.8288" shape="long" rot="R180"/>
<pad name="GPIO14/A16" x="-11.43" y="-3.81" drill="1.016" diameter="1.8288" shape="long" rot="R180"/>
<pad name="GPIO27/A17" x="-11.43" y="-1.27" drill="1.016" diameter="1.8288" shape="long" rot="R180"/>
<pad name="GPIO26/DAC2/A19" x="-11.43" y="1.27" drill="1.016" diameter="1.8288" shape="long" rot="R180"/>
<pad name="GPIO25/DAC1/A18" x="-11.43" y="3.81" drill="1.016" diameter="1.8288" shape="long" rot="R180"/>
<text x="-10.16" y="3.81" size="0.762" layer="25" align="center-left">GPIO25/DAC1/A18</text>
<text x="-10.16" y="1.27" size="0.762" layer="25" align="center-left">GPIO26/DAC2/A19</text>
<text x="-10.16" y="-1.27" size="0.762" layer="25" align="center-left">GPIO27/A17</text>
<text x="-10.16" y="-3.81" size="0.762" layer="25" align="center-left">GPIO14/A16</text>
<text x="-10.16" y="-6.35" size="0.762" layer="25" align="center-left">GPIO12/A15</text>
<text x="-10.16" y="-8.89" size="0.762" layer="25" align="center-left">GPIO13/A14</text>
<text x="-10.16" y="-11.43" size="0.762" layer="25" align="center-left">5V</text>
<text x="-8.89" y="-13.97" size="0.762" layer="25" align="center-left">GND</text>
</package>
<package name="DS3231BREAKOUT">
<pad name="SCL" x="5.08" y="10.16" drill="0.9" diameter="2.032" shape="square"/>
<pad name="SDA" x="5.08" y="7.62" drill="0.9" diameter="2.032" shape="octagon"/>
<pad name="VCC@1" x="5.08" y="5.08" drill="0.9" diameter="2.032" shape="octagon"/>
<pad name="GND@1" x="5.08" y="2.54" drill="0.9" diameter="2.032" shape="octagon"/>
<wire x1="3.81" y1="11.43" x2="3.81" y2="1.27" width="0.127" layer="21"/>
<wire x1="3.81" y1="1.27" x2="6.35" y2="1.27" width="0.127" layer="21"/>
<wire x1="6.35" y1="1.27" x2="6.35" y2="11.43" width="0.127" layer="21"/>
<wire x1="6.35" y1="11.43" x2="3.81" y2="11.43" width="0.127" layer="21"/>
<text x="7.62" y="1.27" size="1.27" layer="21" rot="R90">DS3231 RTC</text>
<text x="0" y="10.16" size="1.27" layer="21">SCL</text>
<text x="0" y="7.62" size="1.27" layer="21">SDA</text>
<text x="0" y="5.08" size="1.27" layer="21">VCC</text>
<text x="0" y="2.54" size="1.27" layer="21">GND</text>
</package>
<package name="MAX9814BREAKOUT">
<pad name="AR" x="1.27" y="11.43" drill="0.9" diameter="2.1844" shape="octagon"/>
<pad name="OUT" x="1.27" y="8.89" drill="0.9" diameter="2.1844" shape="octagon"/>
<pad name="GAIN" x="1.27" y="6.35" drill="0.9" diameter="2.1844" shape="octagon"/>
<pad name="VDD" x="1.27" y="3.81" drill="0.9" diameter="2.1844" shape="square"/>
<pad name="GND" x="1.27" y="1.27" drill="0.9" diameter="2.1844" shape="octagon" first="yes"/>
<text x="-2.54" y="0.635" size="0.8128" layer="21">GND</text>
<wire x1="0" y1="12.7" x2="0" y2="5.08" width="0.127" layer="21"/>
<wire x1="0" y1="5.08" x2="0" y2="2.54" width="0.127" layer="21"/>
<wire x1="0" y1="2.54" x2="0" y2="0" width="0.127" layer="21"/>
<wire x1="0" y1="0" x2="2.54" y2="0" width="0.127" layer="21"/>
<wire x1="2.54" y1="0" x2="2.54" y2="2.54" width="0.127" layer="21"/>
<wire x1="2.54" y1="2.54" x2="2.54" y2="5.08" width="0.127" layer="21"/>
<wire x1="2.54" y1="5.08" x2="2.54" y2="12.7" width="0.127" layer="21"/>
<wire x1="2.54" y1="12.7" x2="0" y2="12.7" width="0.127" layer="21"/>
<wire x1="0" y1="2.54" x2="2.54" y2="2.54" width="0.127" layer="21"/>
<wire x1="0" y1="5.08" x2="2.54" y2="5.08" width="0.127" layer="21"/>
<text x="-2.54" y="3.175" size="0.8128" layer="21">VDD</text>
<text x="-2.54" y="5.715" size="0.8128" layer="21">GAIN</text>
<text x="-2.54" y="8.255" size="0.8128" layer="21">OUT</text>
<text x="-2.54" y="10.795" size="0.8128" layer="21">AR</text>
<text x="3.81" y="2.54" size="1.27" layer="21" rot="R90">MAX9814</text>
</package>
</packages>
</library>
<library name="KAYTA9000">
<packages>
<package name="VFD_GU20X8">
<pad name="ADDR2" x="-1.27" y="0" drill="1" diameter="1.6764"/>
<pad name="ADDR3" x="1.27" y="0" drill="1" diameter="1.6764"/>
<pad name="ADDR1" x="1.27" y="-2.54" drill="1" diameter="1.6764"/>
<pad name="ADDR0" x="-1.27" y="-2.54" drill="1" diameter="1.6764"/>
<pad name="ADDR4" x="-1.27" y="2.54" drill="1" diameter="1.6764"/>
<pad name="ADDR5" x="1.27" y="2.54" drill="1" diameter="1.6764"/>
<pad name="NC_12" x="1.27" y="-5.08" drill="1" diameter="1.6764"/>
<pad name="NC_11" x="-1.27" y="-5.08" drill="1" diameter="1.6764"/>
<pad name="DATA0" x="-1.27" y="5.08" drill="1" diameter="1.6764"/>
<pad name="DATA1" x="1.27" y="5.08" drill="1" diameter="1.6764"/>
<pad name="NC_10" x="1.27" y="-7.62" drill="1" diameter="1.6764"/>
<pad name="NC_9" x="-1.27" y="-7.62" drill="1" diameter="1.6764"/>
<pad name="DATA2" x="-1.27" y="7.62" drill="1" diameter="1.6764"/>
<pad name="DATA3" x="1.27" y="7.62" drill="1" diameter="1.6764"/>
<pad name="NC_8" x="1.27" y="-10.16" drill="1" diameter="1.6764"/>
<pad name="EN" x="-1.27" y="-10.16" drill="1" diameter="1.6764"/>
<pad name="DATA4" x="-1.27" y="10.16" drill="1" diameter="1.6764"/>
<pad name="DATA5" x="1.27" y="10.16" drill="1" diameter="1.6764"/>
<pad name="RST" x="1.27" y="-12.7" drill="1" diameter="1.6764"/>
<pad name="BUSY" x="-1.27" y="-12.7" drill="1" diameter="1.6764"/>
<pad name="DATA6" x="-1.27" y="12.7" drill="1" diameter="1.6764"/>
<pad name="DATA7" x="1.27" y="12.7" drill="1" diameter="1.6764"/>
<pad name="NC_28" x="1.27" y="15.24" drill="1" diameter="1.6764"/>
<pad name="NC_27" x="-1.27" y="15.24" drill="1" diameter="1.6764"/>
<pad name="NC_29" x="-1.27" y="17.78" drill="1" diameter="1.6764"/>
<pad name="NC_30" x="1.27" y="17.78" drill="1" diameter="1.6764"/>
<pad name="WR" x="-1.27" y="-15.24" drill="1" diameter="1.6764"/>
<pad name="NC_4" x="1.27" y="-15.24" drill="1" diameter="1.6764"/>
<pad name="NC_2" x="1.27" y="-17.78" drill="1" diameter="1.6764"/>
<pad name="C/D" x="-1.27" y="-17.78" drill="1" diameter="1.6764" shape="square"/>
<text x="3.81" y="-12.7" size="1.27" layer="21" font="vector" align="center-left">RS</text>
<text x="3.81" y="-2.54" size="1.27" layer="21" font="vector" align="center-left">A1</text>
<text x="3.81" y="0" size="1.27" layer="21" font="vector" align="center-left">A3</text>
<text x="3.81" y="2.54" size="1.27" layer="21" font="vector" align="center-left">A5</text>
<text x="3.81" y="5.08" size="1.27" layer="21" font="vector" align="center-left">D1</text>
<text x="3.81" y="7.62" size="1.27" layer="21" font="vector" align="center-left">D3</text>
<text x="3.81" y="10.16" size="1.27" layer="21" font="vector" align="center-left">D5</text>
<text x="3.81" y="12.7" size="1.27" layer="21" font="vector" align="center-left">D7</text>
<text x="-3.81" y="-17.78" size="1.27" layer="21" font="vector" align="center-right">CD</text>
<text x="-3.81" y="-15.24" size="1.27" layer="21" font="vector" align="center-right">WR</text>
<text x="-3.81" y="-12.7" size="1.27" layer="21" font="vector" align="center-right">BS</text>
<text x="-3.81" y="-10.16" size="1.27" layer="21" font="vector" align="center-right">EN</text>
<text x="-3.81" y="-2.54" size="1.27" layer="21" font="vector" align="center-right">A0</text>
<text x="-3.81" y="0" size="1.27" layer="21" font="vector" align="center-right">A2</text>
<text x="-3.81" y="2.54" size="1.27" layer="21" font="vector" align="center-right">A4</text>
<text x="-3.81" y="5.08" size="1.27" layer="21" font="vector" align="center-right">D0</text>
<text x="-3.81" y="7.62" size="1.27" layer="21" font="vector" align="center-right">D2</text>
<text x="-3.81" y="10.16" size="1.27" layer="21" font="vector" align="center-right">D4</text>
<text x="-3.81" y="12.7" size="1.27" layer="21" font="vector" align="center-right">D6</text>
<text x="-1.27" y="-20.32" size="1.27" layer="21" font="vector" rot="R90" align="center">1</text>
<text x="1.27" y="-20.32" size="1.27" layer="21" rot="R90" align="center">1</text>
<text x="1.27" y="-20.32" size="1.27" layer="21" font="vector" rot="R90" align="center">2</text>
<text x="-1.27" y="20.32" size="1.27" layer="21" font="vector" rot="R90" align="center">29</text>
<text x="1.27" y="20.32" size="1.27" layer="21" font="vector" rot="R90" align="center">30</text>
<wire x1="-2.54" y1="19.05" x2="-2.54" y2="-19.05" width="0.127" layer="21"/>
<wire x1="-2.54" y1="-19.05" x2="2.54" y2="-19.05" width="0.127" layer="21"/>
<wire x1="2.54" y1="-19.05" x2="2.54" y2="19.05" width="0.127" layer="21"/>
<wire x1="2.54" y1="19.05" x2="-2.54" y2="19.05" width="0.127" layer="21"/>
</package>
</packages>
</library>
<library name="wirepad" urn="urn:adsk.eagle:library:412">
<description>&lt;b&gt;Single Pads&lt;/b&gt;&lt;p&gt;
&lt;author&gt;Created by librarian@cadsoft.de&lt;/author&gt;</description>
<packages>
<package name="2,54/1,0" urn="urn:adsk.eagle:footprint:30810/1" library_version="2">
<description>&lt;b&gt;THROUGH-HOLE PAD&lt;/b&gt;</description>
<wire x1="1.27" y1="1.27" x2="1.27" y2="0.762" width="0.1524" layer="21"/>
<wire x1="1.27" y1="1.27" x2="0.762" y2="1.27" width="0.1524" layer="21"/>
<wire x1="-1.27" y1="1.27" x2="-0.762" y2="1.27" width="0.1524" layer="21"/>
<wire x1="-1.27" y1="1.27" x2="-1.27" y2="0.762" width="0.1524" layer="21"/>
<wire x1="-1.27" y1="-1.27" x2="-1.27" y2="-0.762" width="0.1524" layer="21"/>
<wire x1="-1.27" y1="-1.27" x2="-0.762" y2="-1.27" width="0.1524" layer="21"/>
<wire x1="0.762" y1="-1.27" x2="1.27" y2="-1.27" width="0.1524" layer="21"/>
<wire x1="1.27" y1="-1.27" x2="1.27" y2="-0.762" width="0.1524" layer="21"/>
<circle x="0" y="0" radius="1.016" width="0.1524" layer="51"/>
<pad name="1" x="0" y="0" drill="1.016" diameter="2.54" shape="octagon"/>
<text x="-1.27" y="1.524" size="1.27" layer="25" ratio="10">&gt;NAME</text>
<text x="0" y="1" size="0.0254" layer="27">&gt;VALUE</text>
</package>
</packages>
<packages3d>
<package3d name="2,54/1,0" urn="urn:adsk.eagle:package:30828/1" type="box" library_version="2">
<description>THROUGH-HOLE PAD</description>
<packageinstances>
<packageinstance name="2,54/1,0"/>
</packageinstances>
</package3d>
</packages3d>
</library>
<library name="OPL_Capacitor" urn="urn:adsk.eagle:library:8004261">
<description>&lt;b&gt;Seeed Open Parts Library (OPL) for the Seeed Fusion PCB Assembly Service
&lt;br&gt;&lt;br&gt;
&lt;a href="https://www.seeedstudio.com/opl.html" title="https://www.seeedstudio.com/opl.html"&gt;Seeed Fusion PCBA OPL&lt;/a&gt;&lt;br&gt;
&lt;a href="https://www.seeedstudio.com/fusion_pcb.html"&gt;Order PCB/PCBA&lt;/a&gt;&lt;br&gt;&lt;br&gt;
&lt;a href="https://www.seeedstudio.com"&gt;www.seeedstudio.com&lt;/a&gt;
&lt;br&gt;&lt;/b&gt;</description>
<packages>
<package name="PC-D5.3MM" urn="urn:adsk.eagle:footprint:8004263/1" library_version="3">
<circle x="0" y="0" radius="2.65" width="0.127" layer="21"/>
<circle x="0" y="0" radius="2.694" width="0.127" layer="39"/>
<pad name="+" x="-1" y="0" drill="0.8" diameter="1.35" shape="square"/>
<pad name="-" x="1" y="0" drill="0.8" diameter="1.35"/>
<text x="-1.905" y="2.921" size="0.889" layer="25" ratio="11">&gt;NAME</text>
<text x="-1.524" y="-4.191" size="0.635" layer="27" ratio="10">&gt;VALUE</text>
<wire x1="-4.445" y1="0" x2="-3.81" y2="0" width="0.127" layer="21"/>
<wire x1="-3.175" y1="0" x2="-3.81" y2="0" width="0.127" layer="21"/>
<wire x1="-3.81" y1="0" x2="-3.81" y2="0.635" width="0.127" layer="21"/>
<wire x1="-3.81" y1="0" x2="-3.81" y2="-0.635" width="0.127" layer="21"/>
<wire x1="0" y1="2.667" x2="0" y2="1.651" width="0.127" layer="21"/>
<wire x1="0" y1="1.651" x2="0" y2="1.016" width="0.127" layer="21"/>
<wire x1="0" y1="1.016" x2="0" y2="0.381" width="0.127" layer="21"/>
<wire x1="0" y1="0.381" x2="0" y2="-1.524" width="0.127" layer="21"/>
<wire x1="0" y1="-1.524" x2="0" y2="-2.286" width="0.127" layer="21"/>
<wire x1="0" y1="-2.286" x2="0" y2="-2.667" width="0.127" layer="21"/>
<wire x1="0" y1="-2.286" x2="2.286" y2="-1.27" width="0.127" layer="21"/>
<wire x1="0" y1="-1.524" x2="2.54" y2="-0.381" width="0.127" layer="21"/>
<wire x1="1.5875" y1="0.635" x2="2.413" y2="1.016" width="0.127" layer="21"/>
<wire x1="0" y1="0.381" x2="2.159" y2="1.524" width="0.127" layer="21"/>
<wire x1="0" y1="1.016" x2="1.778" y2="1.9685" width="0.127" layer="21"/>
<wire x1="0" y1="1.651" x2="1.27" y2="2.3495" width="0.127" layer="21"/>
<wire x1="1.75" y1="0" x2="2.413" y2="0.381" width="0.127" layer="21"/>
</package>
<package name="CERAMIC-2.54" urn="urn:adsk.eagle:footprint:8004267/1" library_version="3">
<wire x1="-2.54" y1="1.143" x2="2.54" y2="1.143" width="0.127" layer="21"/>
<wire x1="2.54" y1="1.143" x2="2.54" y2="-1.143" width="0.127" layer="21"/>
<wire x1="2.54" y1="-1.143" x2="-2.54" y2="-1.143" width="0.127" layer="21"/>
<wire x1="-2.54" y1="-1.143" x2="-2.54" y2="1.143" width="0.127" layer="21"/>
<pad name="1" x="-1.27" y="0" drill="0.635" diameter="1.143"/>
<pad name="2" x="1.27" y="0" drill="0.635" diameter="1.143"/>
<text x="-1.905" y="1.27" size="0.8128" layer="25" ratio="10">&gt;NAME</text>
<text x="-1.651" y="-1.651" size="0.4064" layer="27" ratio="10">&gt;VALUE</text>
<text x="-1.016" y="-0.254" size="0.4064" layer="33" ratio="10">&gt;NAME</text>
<rectangle x1="-2.54" y1="-1.143" x2="2.54" y2="1.143" layer="39"/>
</package>
</packages>
<packages3d>
<package3d name="PC-D5.3MM" urn="urn:adsk.eagle:package:8004277/1" type="box" library_version="3">
<packageinstances>
<packageinstance name="PC-D5.3MM"/>
</packageinstances>
</package3d>
<package3d name="CERAMIC-2.54" urn="urn:adsk.eagle:package:8004281/1" type="box" library_version="3">
<packageinstances>
<packageinstance name="CERAMIC-2.54"/>
</packageinstances>
</package3d>
</packages3d>
</library>
</libraries>
<attributes>
</attributes>
<variantdefs>
</variantdefs>
<classes>
<class number="0" name="default" width="0" drill="0">
<clearance class="0" value="0.4064"/>
</class>
<class number="1" name="power" width="0.8128" drill="0">
<clearance class="0" value="0.4064"/>
<clearance class="1" value="0.4064"/>
</class>
</classes>
<designrules name="default">
<description language="de">&lt;b&gt;EAGLE Design Rules&lt;/b&gt;
&lt;p&gt;
Die Standard-Design-Rules sind so gewählt, dass sie für 
die meisten Anwendungen passen. Sollte ihre Platine 
besondere Anforderungen haben, treffen Sie die erforderlichen
Einstellungen hier und speichern die Design Rules unter 
einem neuen Namen ab.</description>
<description language="en">&lt;b&gt;EAGLE Design Rules&lt;/b&gt;
&lt;p&gt;
The default Design Rules have been set to cover
a wide range of applications. Your particular design
may have different requirements, so please make the
necessary adjustments and save your customized
design rules under a new name.</description>
<param name="layerSetup" value="(1*16)"/>
<param name="mtCopper" value="0.035mm 0.035mm 0.035mm 0.035mm 0.035mm 0.035mm 0.035mm 0.035mm 0.035mm 0.035mm 0.035mm 0.035mm 0.035mm 0.035mm 0.035mm 0.035mm"/>
<param name="mtIsolate" value="1.5mm 0.15mm 0.2mm 0.15mm 0.2mm 0.15mm 0.2mm 0.15mm 0.2mm 0.15mm 0.2mm 0.15mm 0.2mm 0.15mm 0.2mm"/>
<param name="mdWireWire" value="6mil"/>
<param name="mdWirePad" value="6mil"/>
<param name="mdWireVia" value="6mil"/>
<param name="mdPadPad" value="6mil"/>
<param name="mdPadVia" value="6mil"/>
<param name="mdViaVia" value="6mil"/>
<param name="mdSmdPad" value="6mil"/>
<param name="mdSmdVia" value="6mil"/>
<param name="mdSmdSmd" value="6mil"/>
<param name="mdViaViaSameLayer" value="6mil"/>
<param name="mnLayersViaInSmd" value="2"/>
<param name="mdCopperDimension" value="40mil"/>
<param name="mdDrill" value="6mil"/>
<param name="mdSmdStop" value="0mil"/>
<param name="msWidth" value="6mil"/>
<param name="msDrill" value="0.35mm"/>
<param name="msMicroVia" value="9.99mm"/>
<param name="msBlindViaRatio" value="0.5"/>
<param name="rvPadTop" value="0.25"/>
<param name="rvPadInner" value="0.25"/>
<param name="rvPadBottom" value="0.25"/>
<param name="rvViaOuter" value="0.25"/>
<param name="rvViaInner" value="0.25"/>
<param name="rvMicroViaOuter" value="0.25"/>
<param name="rvMicroViaInner" value="0.25"/>
<param name="rlMinPadTop" value="10mil"/>
<param name="rlMaxPadTop" value="20mil"/>
<param name="rlMinPadInner" value="10mil"/>
<param name="rlMaxPadInner" value="20mil"/>
<param name="rlMinPadBottom" value="10mil"/>
<param name="rlMaxPadBottom" value="20mil"/>
<param name="rlMinViaOuter" value="8mil"/>
<param name="rlMaxViaOuter" value="20mil"/>
<param name="rlMinViaInner" value="8mil"/>
<param name="rlMaxViaInner" value="20mil"/>
<param name="rlMinMicroViaOuter" value="4mil"/>
<param name="rlMaxMicroViaOuter" value="20mil"/>
<param name="rlMinMicroViaInner" value="4mil"/>
<param name="rlMaxMicroViaInner" value="20mil"/>
<param name="psTop" value="-1"/>
<param name="psBottom" value="-1"/>
<param name="psFirst" value="-1"/>
<param name="psElongationLong" value="100"/>
<param name="psElongationOffset" value="100"/>
<param name="mvStopFrame" value="1"/>
<param name="mvCreamFrame" value="0"/>
<param name="mlMinStopFrame" value="4mil"/>
<param name="mlMaxStopFrame" value="4mil"/>
<param name="mlMinCreamFrame" value="0mil"/>
<param name="mlMaxCreamFrame" value="0mil"/>
<param name="mlViaStopLimit" value="0mil"/>
<param name="srRoundness" value="0"/>
<param name="srMinRoundness" value="0mil"/>
<param name="srMaxRoundness" value="0mil"/>
<param name="slThermalIsolate" value="10mil"/>
<param name="slThermalsForVias" value="0"/>
<param name="dpMaxLengthDifference" value="10mm"/>
<param name="dpGapFactor" value="2.5"/>
<param name="checkAngle" value="0"/>
<param name="checkFont" value="1"/>
<param name="checkRestrict" value="1"/>
<param name="checkStop" value="0"/>
<param name="checkValues" value="0"/>
<param name="checkNames" value="1"/>
<param name="checkWireStubs" value="1"/>
<param name="checkPolygonWidth" value="0"/>
<param name="useDiameter" value="13"/>
<param name="maxErrors" value="50"/>
</designrules>
<autorouter>
<pass name="Default">
<param name="RoutingGrid" value="25mil"/>
<param name="AutoGrid" value="1"/>
<param name="Efforts" value="0"/>
<param name="TopRouterVariant" value="1"/>
<param name="tpViaShape" value="round"/>
<param name="PrefDir.1" value="|"/>
<param name="PrefDir.2" value="0"/>
<param name="PrefDir.3" value="0"/>
<param name="PrefDir.4" value="0"/>
<param name="PrefDir.5" value="0"/>
<param name="PrefDir.6" value="0"/>
<param name="PrefDir.7" value="0"/>
<param name="PrefDir.8" value="0"/>
<param name="PrefDir.9" value="0"/>
<param name="PrefDir.10" value="0"/>
<param name="PrefDir.11" value="0"/>
<param name="PrefDir.12" value="0"/>
<param name="PrefDir.13" value="0"/>
<param name="PrefDir.14" value="0"/>
<param name="PrefDir.15" value="0"/>
<param name="PrefDir.16" value="-"/>
<param name="cfVia" value="8"/>
<param name="cfNonPref" value="5"/>
<param name="cfChangeDir" value="2"/>
<param name="cfOrthStep" value="2"/>
<param name="cfDiagStep" value="3"/>
<param name="cfExtdStep" value="0"/>
<param name="cfBonusStep" value="1"/>
<param name="cfMalusStep" value="1"/>
<param name="cfPadImpact" value="4"/>
<param name="cfSmdImpact" value="4"/>
<param name="cfBusImpact" value="0"/>
<param name="cfHugging" value="3"/>
<param name="cfAvoid" value="4"/>
<param name="cfPolygon" value="10"/>
<param name="cfBase.1" value="0"/>
<param name="cfBase.2" value="1"/>
<param name="cfBase.3" value="1"/>
<param name="cfBase.4" value="1"/>
<param name="cfBase.5" value="1"/>
<param name="cfBase.6" value="1"/>
<param name="cfBase.7" value="1"/>
<param name="cfBase.8" value="1"/>
<param name="cfBase.9" value="1"/>
<param name="cfBase.10" value="1"/>
<param name="cfBase.11" value="1"/>
<param name="cfBase.12" value="1"/>
<param name="cfBase.13" value="1"/>
<param name="cfBase.14" value="1"/>
<param name="cfBase.15" value="1"/>
<param name="cfBase.16" value="0"/>
<param name="mnVias" value="20"/>
<param name="mnSegments" value="9999"/>
<param name="mnExtdSteps" value="9999"/>
<param name="mnRipupLevel" value="10"/>
<param name="mnRipupSteps" value="100"/>
<param name="mnRipupTotal" value="100"/>
</pass>
<pass name="Follow-me" refer="Default" active="yes">
</pass>
<pass name="Busses" refer="Default" active="yes">
<param name="cfNonPref" value="4"/>
<param name="cfBusImpact" value="4"/>
<param name="cfHugging" value="0"/>
<param name="mnVias" value="0"/>
</pass>
<pass name="Route" refer="Default" active="yes">
</pass>
<pass name="Optimize1" refer="Default" active="yes">
<param name="cfVia" value="99"/>
<param name="cfExtdStep" value="10"/>
<param name="cfHugging" value="1"/>
<param name="mnExtdSteps" value="1"/>
<param name="mnRipupLevel" value="0"/>
</pass>
<pass name="Optimize2" refer="Optimize1" active="yes">
<param name="cfNonPref" value="0"/>
<param name="cfChangeDir" value="6"/>
<param name="cfExtdStep" value="0"/>
<param name="cfBonusStep" value="2"/>
<param name="cfMalusStep" value="2"/>
<param name="cfPadImpact" value="2"/>
<param name="cfSmdImpact" value="2"/>
<param name="cfHugging" value="0"/>
</pass>
<pass name="Optimize3" refer="Optimize2" active="yes">
<param name="cfChangeDir" value="8"/>
<param name="cfPadImpact" value="0"/>
<param name="cfSmdImpact" value="0"/>
</pass>
<pass name="Optimize4" refer="Optimize3" active="yes">
<param name="cfChangeDir" value="25"/>
</pass>
</autorouter>
<elements>
<element name="SHIFT_REG_DATA" library="SN74HC164N" package="DIP254P762X508-14" value="SN74HC164N" x="21.59" y="17.78" smashed="yes">
<attribute name="AVAILABILITY" value="Unavailable" x="82.55" y="-52.07" size="1.778" layer="27" display="off"/>
<attribute name="DESCRIPTION" value=" Shift Register Single 8-Bit Serial to Parallel 14-Pin PDIP Tube " x="82.55" y="-52.07" size="1.778" layer="27" display="off"/>
<attribute name="MF" value="Texas Instruments" x="82.55" y="-52.07" size="1.778" layer="27" display="off"/>
<attribute name="MP" value="SN74HC164N" x="82.55" y="-52.07" size="1.778" layer="27" display="off"/>
<attribute name="PACKAGE" value="DIP-14 Texas Instruments" x="82.55" y="-52.07" size="1.778" layer="27" display="off"/>
<attribute name="PRICE" value="None" x="82.55" y="-52.07" size="1.778" layer="27" display="off"/>
</element>
<element name="U$1" library="LOLIN32" package="LOLIN32VAR1" value="WEMOSLOLIN32" x="39.37" y="26.67" smashed="yes">
<attribute name="NAME" x="39.37" y="-3.81" size="1.4224" layer="25" align="bottom-right"/>
</element>
<element name="U$2" library="KAYTA9000" package="VFD_GU20X8" value="VFD_GU20X8" x="6.35" y="21.59" smashed="yes" rot="MR0"/>
<element name="C2" library="OPL_Capacitor" library_urn="urn:adsk.eagle:library:8004261" package="PC-D5.3MM" package3d_urn="urn:adsk.eagle:package:8004277/1" value="10uf" x="17.78" y="43.18" smashed="yes">
<attribute name="MPN" value="KS 100uF/16V" x="17.78" y="43.18" size="1.778" layer="27" display="off"/>
<attribute name="NAME" x="15.875" y="46.101" size="0.889" layer="25" ratio="11"/>
<attribute name="VALUE" x="16.256" y="38.989" size="0.635" layer="27" ratio="10"/>
</element>
<element name="C4" library="OPL_Capacitor" library_urn="urn:adsk.eagle:library:8004261" package="CERAMIC-2.54" package3d_urn="urn:adsk.eagle:package:8004281/1" value="0.1uf" x="17.78" y="38.1" smashed="yes">
<attribute name="NAME" x="15.875" y="39.37" size="0.8128" layer="25" ratio="10"/>
<attribute name="NAME" x="16.764" y="37.846" size="0.4064" layer="33" ratio="10"/>
<attribute name="VALUE" x="16.129" y="36.449" size="0.4064" layer="27" ratio="10"/>
</element>
<element name="U$3" library="LOLIN32" package="DS3231BREAKOUT" value="DS3231BREAKOUT" x="62.23" y="40.64" smashed="yes" rot="R180"/>
<element name="U$4" library="LOLIN32" package="MAX9814BREAKOUT" value="MAX9814BREAKOUT" x="55.88" y="21.59" smashed="yes" rot="MR180"/>
<element name="5V" library="wirepad" library_urn="urn:adsk.eagle:library:412" package="2,54/1,0" package3d_urn="urn:adsk.eagle:package:30828/1" value="5V" x="15.24" y="3.81" smashed="yes">
<attribute name="NAME" x="13.97" y="5.334" size="1.27" layer="25" ratio="10"/>
<attribute name="POPULARITY" value="1" x="15.24" y="3.81" size="1.778" layer="27" display="off"/>
<attribute name="VALUE" x="15.24" y="4.81" size="0.0254" layer="27"/>
</element>
<element name="GND" library="wirepad" library_urn="urn:adsk.eagle:library:412" package="2,54/1,0" package3d_urn="urn:adsk.eagle:package:30828/1" value="GND" x="20.32" y="3.81" smashed="yes">
<attribute name="NAME" x="19.05" y="5.334" size="1.27" layer="25" ratio="10"/>
<attribute name="POPULARITY" value="1" x="20.32" y="3.81" size="1.778" layer="27" display="off"/>
<attribute name="VALUE" x="20.32" y="4.81" size="0.0254" layer="27"/>
</element>
</elements>
<signals>
<signal name="5V" class="1">
<contactref element="U$1" pad="5V"/>
<contactref element="5V" pad="1"/>
<wire x1="26.6827" y1="15.2273" x2="27.94" y2="15.2273" width="0.8128" layer="1"/>
<wire x1="15.367" y1="3.9116" x2="26.6827" y2="15.2273" width="0.8128" layer="1"/>
<wire x1="27.94" y1="15.2273" x2="27.94" y2="15.24" width="0.8128" layer="1"/>
<wire x1="15.367" y1="3.9116" x2="15.24" y2="3.81" width="0.8128" layer="1"/>
</signal>
<signal name="GND" class="1">
<contactref element="SHIFT_REG_DATA" pad="7"/>
<contactref element="C2" pad="-"/>
<contactref element="C4" pad="2"/>
<contactref element="U$3" pad="GND@1"/>
<contactref element="U$1" pad="GND@5" route="any" routetag="G$1.GND"/>
<contactref element="U$1" pad="GND@2" route="any" routetag="G$1.GND"/>
<contactref element="U$1" pad="GND@1" route="any" routetag="G$1.GND"/>
<contactref element="U$1" pad="GND@4" route="any" routetag="G$1.GND"/>
<contactref element="U$1" pad="GND@3" route="any" routetag="G$1.GND"/>
<polygon width="0.4064" layer="16" isolate="0.4064">
<vertex x="0" y="0"/>
<vertex x="59.69" y="0"/>
<vertex x="59.69" y="53.34"/>
<vertex x="1.27" y="53.34"/>
<vertex x="0" y="53.34"/>
</polygon>
<contactref element="U$4" pad="GND"/>
<contactref element="GND" pad="1"/>
<wire x1="27.94" y1="12.7" x2="19.05" y2="12.7" width="0.8128" layer="16"/>
<wire x1="19.05" y1="12.7" x2="13.97" y2="17.78" width="0.8128" layer="16"/>
<wire x1="18.78" y1="43.18" x2="19.05" y2="42.91" width="0.8128" layer="16"/>
<wire x1="19.05" y1="42.91" x2="19.05" y2="38.1" width="0.8128" layer="16"/>
</signal>
<signal name="3V3" class="1">
<contactref element="SHIFT_REG_DATA" pad="14"/>
<contactref element="C2" pad="+"/>
<contactref element="C4" pad="1"/>
<contactref element="U$3" pad="VCC@1"/>
<contactref element="U$1" pad="3V3@1" route="any" routetag="G$1.3.3V"/>
<contactref element="U$1" pad="3V3@3" route="any" routetag="G$1.3.3V"/>
<contactref element="U$1" pad="3V3@2" route="any" routetag="G$1.3.3V"/>
<contactref element="U$4" pad="VDD"/>
<wire x1="16.6243" y1="43.0276" x2="16.6243" y2="38.1381" width="0.8128" layer="16"/>
<wire x1="16.764" y1="43.1673" x2="16.6243" y2="43.0276" width="0.8128" layer="16"/>
<wire x1="16.6243" y1="38.1381" x2="16.51" y2="38.1" width="0.8128" layer="16"/>
<wire x1="16.764" y1="43.1673" x2="16.78" y2="43.18" width="0.8128" layer="16"/>
<wire x1="16.764" y1="37.8587" x2="21.5138" y2="33.1089" width="0.8128" layer="16"/>
<wire x1="21.5138" y1="33.1089" x2="21.59" y2="33.02" width="0.8128" layer="16"/>
<wire x1="16.764" y1="37.8587" x2="16.51" y2="38.1" width="0.8128" layer="16"/>
<wire x1="56.4388" y1="36.322" x2="57.1373" y2="35.6235" width="0.8128" layer="1"/>
<wire x1="56.2991" y1="36.322" x2="56.4388" y2="36.322" width="0.8128" layer="1"/>
<wire x1="55.3212" y1="37.2999" x2="56.2991" y2="36.322" width="0.8128" layer="1"/>
<wire x1="55.3212" y1="39.5351" x2="55.3212" y2="37.2999" width="0.8128" layer="1"/>
<wire x1="51.689" y1="43.1673" x2="55.3212" y2="39.5351" width="0.8128" layer="1"/>
<wire x1="50.8508" y1="43.1673" x2="51.689" y2="43.1673" width="0.8128" layer="1"/>
<wire x1="57.1373" y1="35.6235" x2="57.15" y2="35.56" width="0.8128" layer="1"/>
<wire x1="50.8508" y1="43.1673" x2="50.8" y2="43.18" width="0.8128" layer="1"/>
<wire x1="54.483" y1="17.8816" x2="57.1373" y2="17.8816" width="0.8128" layer="1"/>
<wire x1="52.1081" y1="20.2565" x2="54.483" y2="17.8816" width="0.8128" layer="1"/>
<wire x1="50.8508" y1="20.2565" x2="52.1081" y2="20.2565" width="0.8128" layer="1"/>
<wire x1="57.1373" y1="17.8816" x2="57.15" y2="17.78" width="0.8128" layer="1"/>
<wire x1="50.8508" y1="20.2565" x2="50.8" y2="20.32" width="0.8128" layer="1"/>
<wire x1="17.3228" y1="43.7261" x2="17.0434" y2="43.4467" width="0.8128" layer="16"/>
<wire x1="17.3228" y1="43.8658" x2="17.3228" y2="43.7261" width="0.8128" layer="16"/>
<wire x1="24.1681" y1="50.7111" x2="17.3228" y2="43.8658" width="0.8128" layer="16"/>
<wire x1="27.94" y1="50.7111" x2="24.1681" y2="50.7111" width="0.8128" layer="16"/>
<wire x1="17.0434" y1="43.4467" x2="16.78" y2="43.18" width="0.8128" layer="16"/>
<wire x1="27.94" y1="50.7111" x2="27.94" y2="50.8" width="0.8128" layer="16"/>
</signal>
<signal name="SCL">
<contactref element="U$3" pad="SCL"/>
<contactref element="U$1" pad="GPIO21/SDA"/>
<wire x1="51.2699" y1="37.9984" x2="50.8508" y2="37.9984" width="0.1524" layer="1"/>
<wire x1="55.6006" y1="33.6677" x2="51.2699" y2="37.9984" width="0.1524" layer="1"/>
<wire x1="55.6006" y1="32.131" x2="55.6006" y2="33.6677" width="0.1524" layer="1"/>
<wire x1="57.1373" y1="30.5943" x2="55.6006" y2="32.131" width="0.1524" layer="1"/>
<wire x1="50.8508" y1="37.9984" x2="50.8" y2="38.1" width="0.1524" layer="1"/>
<wire x1="57.1373" y1="30.5943" x2="57.15" y2="30.48" width="0.1524" layer="1"/>
</signal>
<signal name="SDA">
<contactref element="U$3" pad="SDA"/>
<contactref element="U$1" pad="GPIO22/SCL"/>
<wire x1="51.4096" y1="40.513" x2="50.8508" y2="40.513" width="0.1524" layer="1"/>
<wire x1="54.3433" y1="37.5793" x2="51.4096" y2="40.513" width="0.1524" layer="1"/>
<wire x1="54.3433" y1="35.9029" x2="54.3433" y2="37.5793" width="0.1524" layer="1"/>
<wire x1="57.1373" y1="33.1089" x2="54.3433" y2="35.9029" width="0.1524" layer="1"/>
<wire x1="50.8508" y1="40.513" x2="50.8" y2="40.64" width="0.1524" layer="1"/>
<wire x1="57.1373" y1="33.1089" x2="57.15" y2="33.02" width="0.1524" layer="1"/>
</signal>
<signal name="A0">
<contactref element="U$2" pad="ADDR0"/>
<contactref element="U$1" pad="GPIO19/MISO"/>
<wire x1="10.7569" y1="18.9992" x2="7.6835" y2="18.9992" width="0.1524" layer="16"/>
<wire x1="18.5801" y1="11.176" x2="10.7569" y2="18.9992" width="0.1524" layer="16"/>
<wire x1="31.0134" y1="11.176" x2="18.5801" y2="11.176" width="0.1524" layer="16"/>
<wire x1="50.292" y1="30.4546" x2="31.0134" y2="11.176" width="0.1524" layer="16"/>
<wire x1="50.7111" y1="30.4546" x2="50.292" y2="30.4546" width="0.1524" layer="16"/>
<wire x1="7.6835" y1="18.9992" x2="7.62" y2="19.05" width="0.1524" layer="16"/>
<wire x1="50.7111" y1="30.4546" x2="50.8" y2="30.48" width="0.1524" layer="16"/>
</signal>
<signal name="A1">
<contactref element="U$2" pad="ADDR1"/>
<contactref element="U$1" pad="GPIO4"/>
<wire x1="5.0292" y1="18.4404" x2="5.0292" y2="18.9992" width="0.1524" layer="1"/>
<wire x1="3.6322" y1="17.0434" x2="5.0292" y2="18.4404" width="0.1524" layer="1"/>
<wire x1="3.6322" y1="3.3528" x2="3.6322" y2="17.0434" width="0.1524" layer="1"/>
<wire x1="5.0292" y1="1.9558" x2="3.6322" y2="3.3528" width="0.1524" layer="1"/>
<wire x1="39.6748" y1="1.9558" x2="5.0292" y2="1.9558" width="0.1524" layer="1"/>
<wire x1="50.292" y1="12.573" x2="39.6748" y2="1.9558" width="0.1524" layer="1"/>
<wire x1="50.7111" y1="12.573" x2="50.292" y2="12.573" width="0.1524" layer="1"/>
<wire x1="5.0292" y1="18.9992" x2="5.08" y2="19.05" width="0.1524" layer="1"/>
<wire x1="50.7111" y1="12.573" x2="50.8" y2="12.7" width="0.1524" layer="1"/>
</signal>
<signal name="A2">
<contactref element="U$2" pad="ADDR2"/>
<contactref element="U$1" pad="GPIO13/A14"/>
<wire x1="7.6835" y1="21.2344" x2="7.6835" y2="21.5138" width="0.1524" layer="1"/>
<wire x1="13.1318" y1="15.7861" x2="7.6835" y2="21.2344" width="0.1524" layer="1"/>
<wire x1="25.5651" y1="15.7861" x2="13.1318" y2="15.7861" width="0.1524" layer="1"/>
<wire x1="27.5209" y1="17.7419" x2="25.5651" y2="15.7861" width="0.1524" layer="1"/>
<wire x1="27.94" y1="17.7419" x2="27.5209" y2="17.7419" width="0.1524" layer="1"/>
<wire x1="7.6835" y1="21.5138" x2="7.62" y2="21.59" width="0.1524" layer="1"/>
<wire x1="27.94" y1="17.7419" x2="27.94" y2="17.78" width="0.1524" layer="1"/>
</signal>
<signal name="A3">
<contactref element="U$2" pad="ADDR3"/>
<contactref element="U$1" pad="GPIO32/A4"/>
<wire x1="5.0292" y1="22.2123" x2="5.0292" y2="21.6535" width="0.1524" layer="1"/>
<wire x1="2.5146" y1="24.7269" x2="5.0292" y2="22.2123" width="0.1524" layer="1"/>
<wire x1="2.5146" y1="40.3733" x2="2.5146" y2="24.7269" width="0.1524" layer="1"/>
<wire x1="4.0513" y1="41.91" x2="2.5146" y2="40.3733" width="0.1524" layer="1"/>
<wire x1="26.2636" y1="41.91" x2="4.0513" y2="41.91" width="0.1524" layer="1"/>
<wire x1="27.5209" y1="40.6527" x2="26.2636" y2="41.91" width="0.1524" layer="1"/>
<wire x1="27.94" y1="40.6527" x2="27.5209" y2="40.6527" width="0.1524" layer="1"/>
<wire x1="5.0292" y1="21.6535" x2="5.08" y2="21.59" width="0.1524" layer="1"/>
<wire x1="27.94" y1="40.6527" x2="27.94" y2="40.64" width="0.1524" layer="1"/>
</signal>
<signal name="A4">
<contactref element="U$2" pad="ADDR4"/>
<contactref element="U$1" pad="GPIO14/A16"/>
<wire x1="7.6835" y1="23.4696" x2="7.6835" y2="24.0284" width="0.1524" layer="1"/>
<wire x1="12.573" y1="18.5801" x2="7.6835" y2="23.4696" width="0.1524" layer="1"/>
<wire x1="12.573" y1="17.1831" x2="12.573" y2="18.5801" width="0.1524" layer="1"/>
<wire x1="13.4112" y1="16.3449" x2="12.573" y2="17.1831" width="0.1524" layer="1"/>
<wire x1="22.0726" y1="16.3449" x2="13.4112" y2="16.3449" width="0.1524" layer="1"/>
<wire x1="25.5651" y1="19.8374" x2="22.0726" y2="16.3449" width="0.1524" layer="1"/>
<wire x1="25.5651" y1="20.955" x2="25.5651" y2="19.8374" width="0.1524" layer="1"/>
<wire x1="27.3812" y1="22.7711" x2="25.5651" y2="20.955" width="0.1524" layer="1"/>
<wire x1="27.94" y1="22.7711" x2="27.3812" y2="22.7711" width="0.1524" layer="1"/>
<wire x1="7.6835" y1="24.0284" x2="7.62" y2="24.13" width="0.1524" layer="1"/>
<wire x1="27.94" y1="22.7711" x2="27.94" y2="22.86" width="0.1524" layer="1"/>
</signal>
<signal name="A5">
<contactref element="U$2" pad="ADDR5"/>
<contactref element="U$1" pad="GPIO33/A5"/>
<wire x1="5.0292" y1="24.7269" x2="5.0292" y2="24.1681" width="0.1524" layer="1"/>
<wire x1="3.0734" y1="26.6827" x2="5.0292" y2="24.7269" width="0.1524" layer="1"/>
<wire x1="3.0734" y1="40.0939" x2="3.0734" y2="26.6827" width="0.1524" layer="1"/>
<wire x1="4.3307" y1="41.3512" x2="3.0734" y2="40.0939" width="0.1524" layer="1"/>
<wire x1="24.3078" y1="41.3512" x2="4.3307" y2="41.3512" width="0.1524" layer="1"/>
<wire x1="27.5209" y1="38.1381" x2="24.3078" y2="41.3512" width="0.1524" layer="1"/>
<wire x1="27.94" y1="38.1381" x2="27.5209" y2="38.1381" width="0.1524" layer="1"/>
<wire x1="5.0292" y1="24.1681" x2="5.08" y2="24.13" width="0.1524" layer="1"/>
<wire x1="27.94" y1="38.1381" x2="27.94" y2="38.1" width="0.1524" layer="1"/>
</signal>
<signal name="CD">
<contactref element="U$2" pad="C/D"/>
<contactref element="U$1" pad="GPIO5/LED/SS"/>
<wire x1="12.8524" y1="3.9116" x2="7.6835" y2="3.9116" width="0.1524" layer="16"/>
<wire x1="14.8082" y1="5.8674" x2="12.8524" y2="3.9116" width="0.1524" layer="16"/>
<wire x1="33.3883" y1="5.8674" x2="14.8082" y2="5.8674" width="0.1524" layer="16"/>
<wire x1="50.292" y1="22.7711" x2="33.3883" y2="5.8674" width="0.1524" layer="16"/>
<wire x1="50.7111" y1="22.7711" x2="50.292" y2="22.7711" width="0.1524" layer="16"/>
<wire x1="7.6835" y1="3.9116" x2="7.62" y2="3.81" width="0.1524" layer="16"/>
<wire x1="50.7111" y1="22.7711" x2="50.8" y2="22.86" width="0.1524" layer="16"/>
</signal>
<signal name="WR">
<contactref element="U$2" pad="WR"/>
<contactref element="U$1" pad="GPIO18/SCK"/>
<wire x1="31.4325" y1="6.4262" x2="7.6835" y2="6.4262" width="0.1524" layer="16"/>
<wire x1="50.292" y1="25.2857" x2="31.4325" y2="6.4262" width="0.1524" layer="16"/>
<wire x1="50.7111" y1="25.2857" x2="50.292" y2="25.2857" width="0.1524" layer="16"/>
<wire x1="7.6835" y1="6.4262" x2="7.62" y2="6.35" width="0.1524" layer="16"/>
<wire x1="50.7111" y1="25.2857" x2="50.8" y2="25.4" width="0.1524" layer="16"/>
</signal>
<signal name="RST">
<contactref element="U$2" pad="RST"/>
<contactref element="U$1" pad="GPIO15"/>
<wire x1="5.0292" y1="8.2423" x2="5.0292" y2="8.8011" width="0.1524" layer="16"/>
<wire x1="3.6322" y1="6.8453" x2="5.0292" y2="8.2423" width="0.1524" layer="16"/>
<wire x1="3.6322" y1="3.3528" x2="3.6322" y2="6.8453" width="0.1524" layer="16"/>
<wire x1="5.0292" y1="1.9558" x2="3.6322" y2="3.3528" width="0.1524" layer="16"/>
<wire x1="50.1523" y1="1.9558" x2="5.0292" y2="1.9558" width="0.1524" layer="16"/>
<wire x1="50.7111" y1="2.5146" x2="50.1523" y2="1.9558" width="0.1524" layer="16"/>
<wire x1="5.0292" y1="8.8011" x2="5.08" y2="8.89" width="0.1524" layer="16"/>
<wire x1="50.7111" y1="2.5146" x2="50.8" y2="2.54" width="0.1524" layer="16"/>
</signal>
<signal name="EN">
<contactref element="U$2" pad="EN"/>
<contactref element="U$1" pad="GPIO23/MOSI"/>
<wire x1="17.6022" y1="11.3157" x2="7.6835" y2="11.3157" width="0.1524" layer="16"/>
<wire x1="18.3007" y1="10.6172" x2="17.6022" y2="11.3157" width="0.1524" layer="16"/>
<wire x1="33.1089" y1="10.6172" x2="18.3007" y2="10.6172" width="0.1524" layer="16"/>
<wire x1="50.4317" y1="27.94" x2="33.1089" y2="10.6172" width="0.1524" layer="16"/>
<wire x1="50.8" y1="27.94" x2="50.4317" y2="27.94" width="0.1524" layer="16"/>
<wire x1="7.6835" y1="11.3157" x2="7.62" y2="11.43" width="0.1524" layer="16"/>
</signal>
<signal name="CLK">
<contactref element="SHIFT_REG_DATA" pad="8"/>
<contactref element="U$1" pad="GPIO27/A17"/>
<wire x1="21.6535" y1="18.4404" x2="21.6535" y2="17.8816" width="0.1524" layer="1"/>
<wire x1="25.5651" y1="22.352" x2="21.6535" y2="18.4404" width="0.1524" layer="1"/>
<wire x1="25.5651" y1="23.4696" x2="25.5651" y2="22.352" width="0.1524" layer="1"/>
<wire x1="27.3812" y1="25.2857" x2="25.5651" y2="23.4696" width="0.1524" layer="1"/>
<wire x1="27.94" y1="25.2857" x2="27.3812" y2="25.2857" width="0.1524" layer="1"/>
<wire x1="21.6535" y1="17.8816" x2="21.59" y2="17.78" width="0.1524" layer="1"/>
<wire x1="27.94" y1="25.2857" x2="27.94" y2="25.4" width="0.1524" layer="1"/>
</signal>
<signal name="CLR">
<contactref element="SHIFT_REG_DATA" pad="9"/>
<contactref element="U$1" pad="GPIO26/DAC2/A19"/>
<wire x1="21.6535" y1="20.955" x2="21.6535" y2="20.3962" width="0.1524" layer="1"/>
<wire x1="25.5651" y1="24.8666" x2="21.6535" y2="20.955" width="0.1524" layer="1"/>
<wire x1="25.5651" y1="25.9842" x2="25.5651" y2="24.8666" width="0.1524" layer="1"/>
<wire x1="27.5209" y1="27.94" x2="25.5651" y2="25.9842" width="0.1524" layer="1"/>
<wire x1="27.94" y1="27.94" x2="27.5209" y2="27.94" width="0.1524" layer="1"/>
<wire x1="21.6535" y1="20.3962" x2="21.59" y2="20.32" width="0.1524" layer="1"/>
</signal>
<signal name="SHIFTDATA">
<contactref element="SHIFT_REG_DATA" pad="1"/>
<contactref element="SHIFT_REG_DATA" pad="2"/>
<contactref element="U$1" pad="GPIO25/DAC1/A18"/>
<wire x1="13.97" y1="33.02" x2="13.97" y2="30.48" width="0.1524" layer="1"/>
<wire x1="25.9842" y1="30.5943" x2="27.94" y2="30.5943" width="0.1524" layer="1"/>
<wire x1="22.2123" y1="34.3662" x2="25.9842" y2="30.5943" width="0.1524" layer="1"/>
<wire x1="15.2273" y1="34.3662" x2="22.2123" y2="34.3662" width="0.1524" layer="1"/>
<wire x1="13.97" y1="33.1089" x2="15.2273" y2="34.3662" width="0.1524" layer="1"/>
<wire x1="27.94" y1="30.5943" x2="27.94" y2="30.48" width="0.1524" layer="1"/>
<wire x1="13.97" y1="33.1089" x2="13.97" y2="33.02" width="0.1524" layer="1"/>
</signal>
<signal name="D0">
<contactref element="U$2" pad="DATA0"/>
<contactref element="SHIFT_REG_DATA" pad="6"/>
<wire x1="13.97" y1="20.2565" x2="7.6835" y2="26.543" width="0.1524" layer="1"/>
<wire x1="7.6835" y1="26.543" x2="7.62" y2="26.67" width="0.1524" layer="1"/>
<wire x1="13.97" y1="20.2565" x2="13.97" y2="20.32" width="0.1524" layer="1"/>
</signal>
<signal name="D1">
<contactref element="U$2" pad="DATA1"/>
<contactref element="SHIFT_REG_DATA" pad="13"/>
<wire x1="5.0292" y1="27.3812" x2="5.0292" y2="26.6827" width="0.1524" layer="16"/>
<wire x1="2.5146" y1="29.8958" x2="5.0292" y2="27.3812" width="0.1524" layer="16"/>
<wire x1="2.5146" y1="40.3733" x2="2.5146" y2="29.8958" width="0.1524" layer="16"/>
<wire x1="4.0513" y1="41.91" x2="2.5146" y2="40.3733" width="0.1524" layer="16"/>
<wire x1="10.1981" y1="41.91" x2="4.0513" y2="41.91" width="0.1524" layer="16"/>
<wire x1="21.5138" y1="30.5943" x2="10.1981" y2="41.91" width="0.1524" layer="16"/>
<wire x1="5.0292" y1="26.6827" x2="5.08" y2="26.67" width="0.1524" layer="16"/>
<wire x1="21.5138" y1="30.5943" x2="21.59" y2="30.48" width="0.1524" layer="16"/>
</signal>
<signal name="D2">
<contactref element="U$2" pad="DATA2"/>
<contactref element="SHIFT_REG_DATA" pad="5"/>
<wire x1="13.97" y1="22.9108" x2="7.6835" y2="29.1973" width="0.1524" layer="1"/>
<wire x1="7.6835" y1="29.1973" x2="7.62" y2="29.21" width="0.1524" layer="1"/>
<wire x1="13.97" y1="22.9108" x2="13.97" y2="22.86" width="0.1524" layer="1"/>
</signal>
<signal name="D3">
<contactref element="U$2" pad="DATA3"/>
<contactref element="SHIFT_REG_DATA" pad="12"/>
<wire x1="21.5138" y1="28.6385" x2="21.5138" y2="27.94" width="0.1524" layer="16"/>
<wire x1="15.9258" y1="34.2265" x2="21.5138" y2="28.6385" width="0.1524" layer="16"/>
<wire x1="15.9258" y1="34.3662" x2="15.9258" y2="34.2265" width="0.1524" layer="16"/>
<wire x1="8.9408" y1="41.3512" x2="15.9258" y2="34.3662" width="0.1524" layer="16"/>
<wire x1="4.3307" y1="41.3512" x2="8.9408" y2="41.3512" width="0.1524" layer="16"/>
<wire x1="3.0734" y1="40.0939" x2="4.3307" y2="41.3512" width="0.1524" layer="16"/>
<wire x1="3.0734" y1="31.2928" x2="3.0734" y2="40.0939" width="0.1524" layer="16"/>
<wire x1="5.0292" y1="29.337" x2="3.0734" y2="31.2928" width="0.1524" layer="16"/>
<wire x1="21.5138" y1="27.94" x2="21.59" y2="27.94" width="0.1524" layer="16"/>
<wire x1="5.0292" y1="29.337" x2="5.08" y2="29.21" width="0.1524" layer="16"/>
</signal>
<signal name="D4">
<contactref element="U$2" pad="DATA4"/>
<contactref element="SHIFT_REG_DATA" pad="4"/>
<wire x1="13.97" y1="25.4254" x2="7.6835" y2="31.7119" width="0.1524" layer="1"/>
<wire x1="7.6835" y1="31.7119" x2="7.62" y2="31.75" width="0.1524" layer="1"/>
<wire x1="13.97" y1="25.4254" x2="13.97" y2="25.4" width="0.1524" layer="1"/>
</signal>
<signal name="D5">
<contactref element="U$2" pad="DATA5"/>
<contactref element="SHIFT_REG_DATA" pad="11"/>
<wire x1="21.6535" y1="26.1239" x2="21.6535" y2="25.4254" width="0.1524" layer="16"/>
<wire x1="22.9108" y1="27.3812" x2="21.6535" y2="26.1239" width="0.1524" layer="16"/>
<wire x1="22.9108" y1="33.6677" x2="22.9108" y2="27.3812" width="0.1524" layer="16"/>
<wire x1="19.8374" y1="36.7411" x2="22.9108" y2="33.6677" width="0.1524" layer="16"/>
<wire x1="12.1539" y1="36.7411" x2="19.8374" y2="36.7411" width="0.1524" layer="1"/>
<wire x1="8.1026" y1="40.7924" x2="12.1539" y2="36.7411" width="0.1524" layer="1"/>
<wire x1="4.6101" y1="40.7924" x2="8.1026" y2="40.7924" width="0.1524" layer="1"/>
<wire x1="3.6322" y1="39.8145" x2="4.6101" y2="40.7924" width="0.1524" layer="1"/>
<wire x1="3.6322" y1="33.2486" x2="3.6322" y2="39.8145" width="0.1524" layer="1"/>
<wire x1="5.0292" y1="31.8516" x2="3.6322" y2="33.2486" width="0.1524" layer="1"/>
<wire x1="21.6535" y1="25.4254" x2="21.59" y2="25.4" width="0.1524" layer="16"/>
<wire x1="5.0292" y1="31.8516" x2="5.08" y2="31.75" width="0.1524" layer="1"/>
<via x="19.8374" y="36.7411" extent="1-16" drill="0.35"/>
</signal>
<signal name="D6">
<contactref element="U$2" pad="DATA6"/>
<contactref element="SHIFT_REG_DATA" pad="3"/>
<wire x1="13.97" y1="27.94" x2="7.62" y2="34.29" width="0.1524" layer="1"/>
</signal>
<signal name="D7">
<contactref element="U$2" pad="DATA7"/>
<contactref element="SHIFT_REG_DATA" pad="10"/>
<wire x1="21.5138" y1="23.4696" x2="21.5138" y2="22.9108" width="0.1524" layer="16"/>
<wire x1="15.367" y1="29.6164" x2="21.5138" y2="23.4696" width="0.1524" layer="16"/>
<wire x1="15.367" y1="34.0868" x2="15.367" y2="29.6164" width="0.1524" layer="16"/>
<wire x1="14.1097" y1="35.3441" x2="15.367" y2="34.0868" width="0.1524" layer="16"/>
<wire x1="13.1318" y1="35.3441" x2="14.1097" y2="35.3441" width="0.1524" layer="16"/>
<wire x1="8.9408" y1="39.5351" x2="13.1318" y2="35.3441" width="0.1524" layer="16"/>
<wire x1="8.9408" y1="39.9542" x2="8.9408" y2="39.5351" width="0.1524" layer="16"/>
<wire x1="8.1026" y1="40.7924" x2="8.9408" y2="39.9542" width="0.1524" layer="16"/>
<wire x1="4.6101" y1="40.7924" x2="8.1026" y2="40.7924" width="0.1524" layer="16"/>
<wire x1="3.6322" y1="39.8145" x2="4.6101" y2="40.7924" width="0.1524" layer="16"/>
<wire x1="3.6322" y1="35.7632" x2="3.6322" y2="39.8145" width="0.1524" layer="16"/>
<wire x1="5.0292" y1="34.3662" x2="3.6322" y2="35.7632" width="0.1524" layer="16"/>
<wire x1="21.5138" y1="22.9108" x2="21.59" y2="22.86" width="0.1524" layer="16"/>
<wire x1="5.0292" y1="34.3662" x2="5.08" y2="34.29" width="0.1524" layer="16"/>
</signal>
<signal name="MICOUT">
<contactref element="U$4" pad="OUT"/>
<contactref element="U$1" pad="GPIO16"/>
<wire x1="54.6227" y1="15.2273" x2="50.8508" y2="15.2273" width="0.1524" layer="1"/>
<wire x1="57.15" y1="12.7" x2="54.6227" y2="15.2273" width="0.1524" layer="1"/>
<wire x1="50.8508" y1="15.2273" x2="50.8" y2="15.24" width="0.1524" layer="1"/>
</signal>
<signal name="MICGAIN">
<contactref element="U$4" pad="GAIN"/>
<contactref element="U$1" pad="GPIO17"/>
<wire x1="53.3654" y1="17.7419" x2="50.8508" y2="17.7419" width="0.1524" layer="1"/>
<wire x1="55.7403" y1="15.367" x2="53.3654" y2="17.7419" width="0.1524" layer="1"/>
<wire x1="57.1373" y1="15.367" x2="55.7403" y2="15.367" width="0.1524" layer="1"/>
<wire x1="50.8508" y1="17.7419" x2="50.8" y2="17.78" width="0.1524" layer="1"/>
<wire x1="57.1373" y1="15.367" x2="57.15" y2="15.24" width="0.1524" layer="1"/>
</signal>
</signals>
<mfgpreviewcolors>
<mfgpreviewcolor name="soldermaskcolor" color="0xC8008000"/>
<mfgpreviewcolor name="silkscreencolor" color="0xFFFEFEFE"/>
<mfgpreviewcolor name="backgroundcolor" color="0xFF282828"/>
<mfgpreviewcolor name="coppercolor" color="0xFFFFBF00"/>
<mfgpreviewcolor name="substratecolor" color="0xFF786E46"/>
</mfgpreviewcolors>
</board>
</drawing>
<compatibility>
<note version="6.3" minversion="6.2.2" severity="warning">
Since Version 6.2.2 text objects can contain more than one line,
which will not be processed correctly with this version.
</note>
<note version="8.2" severity="warning">
Since Version 8.2, EAGLE supports online libraries. The ids
of those online libraries will not be understood (or retained)
with this version.
</note>
<note version="8.3" severity="warning">
Since Version 8.3, EAGLE supports URNs for individual library
assets (packages, symbols, and devices). The URNs of those assets
will not be understood (or retained) with this version.
</note>
<note version="8.3" severity="warning">
Since Version 8.3, EAGLE supports the association of 3D packages
with devices in libraries, schematics, and board files. Those 3D
packages will not be understood (or retained) with this version.
</note>
</compatibility>
</eagle>
